<svg xmlns="http://www.w3.org/2000/svg" width="207" height="53" viewBox="0 0 207 53">
    <g fill="none" fill-rule="evenodd">
        <path fill="#FFF" d="M-1099-1084H267v8603h-1366z"/>
        <g fill="#1A9F29" fill-rule="nonzero">
            <path d="M53.922 24.022c.852.937 1.874 1.619 3.152 2.13 1.278.511 2.726.767 4.515.767.852 0 1.704-.086 2.385-.17a6.6 6.6 0 0 0 1.96-.512c.596-.17 1.107-.426 1.618-.596.426-.256.852-.426 1.192-.597l-.596-1.277-1.022.51c-.34.171-.682.256-1.107.427-.426.085-.852.255-1.363.255-.512.085-1.108.085-1.79.085-1.277 0-2.385-.255-3.151-.766-.852-.511-1.448-1.193-1.96-1.96a10.205 10.205 0 0 1-.936-2.981 25.92 25.92 0 0 1-.256-3.748c0-1.022.085-2.13.17-3.237.086-1.108.341-2.045.767-2.896.426-.852.937-1.534 1.704-2.13.766-.511 1.789-.852 3.066-.852 1.193 0 2.215.34 3.067.937.852.596 1.363 1.619 1.619 2.896h1.363V6.133a23.58 23.58 0 0 0-1.363-.51c-.512-.171-1.023-.256-1.619-.342-.596-.085-1.107-.085-1.704-.17-.51 0-1.022-.085-1.448-.085-1.874 0-3.407.255-4.77.767-1.278.51-2.385 1.277-3.237 2.214-.852.937-1.448 2.13-1.874 3.493-.426 1.363-.597 2.981-.597 4.685 0 1.619.17 3.152.597 4.43.255 1.448.852 2.555 1.618 3.407zM137.233 26.237a7.252 7.252 0 0 0 2.811-.852c.852-.51 1.534-1.192 1.96-2.13.51-.936.766-2.214.766-3.833 0-1.192-.17-2.13-.51-2.981-.341-.852-.853-1.448-1.62-2.045-.766-.51-1.703-.852-2.896-1.107-1.192-.256-2.64-.34-4.344-.34h-1.789V7.921c0-.51.085-.852.34-1.022.256-.17.682-.17 1.364-.17h2.555c.767 0 1.449 0 1.96.085.51.085.937.17 1.192.426.341.255.597.596.767 1.022.17.426.426 1.022.596 1.789h1.108V5.367h-15.674v.681c.085 0 .17.085.425.085.256.086.426.17.512.256.085.085.17.255.255.511 0 .256.085.511.085.852v16.271c0 .34 0 .68-.085.851 0 .256-.085.426-.255.511-.086.085-.256.256-.512.256-.255.085-.34.085-.425.085v.681h7.922c1.278 0 2.385 0 3.492-.17zm-5.196-1.533a.773.773 0 0 1-.256-.597c0-.255-.085-.596-.085-1.022v-8.86h1.79c1.618 0 2.81.427 3.492 1.279.681.852 1.022 2.215 1.022 4.089 0 1.277-.085 2.214-.34 2.981-.256.767-.512 1.278-.938 1.704-.426.34-.852.596-1.278.766-.51.086-1.022.17-1.533.17-.511-.084-.937-.084-1.192-.17-.256-.085-.512-.17-.682-.34zM114.83 25.726c-.086 0-.17-.085-.426-.085-.256-.085-.426-.17-.511-.256-.086-.085-.17-.255-.256-.51 0-.256-.085-.512-.085-.853v-5.878h2.13c1.107 0 2.13-.085 3.151-.255a8.068 8.068 0 0 0 2.641-.937c.767-.511 1.363-1.108 1.789-2.045.426-.851.681-2.044.681-3.492 0-1.363-.255-2.47-.596-3.237-.426-.767-1.022-1.448-1.704-1.874-.681-.426-1.533-.682-2.47-.767-.937-.085-1.874-.17-2.896-.17H107.93v.681c.085 0 .17.085.426.085.255.086.425.17.51.256.086.085.171.255.256.511 0 .256.085.511.085.852v16.185c0 .34 0 .682-.085.852 0 .255-.085.426-.255.511-.086.085-.256.256-.511.256-.256.085-.341.085-.426.085v.681h6.9v-.596zm-1.193-17.974c0-.17 0-.34.085-.511 0-.17.085-.256.17-.341.086-.085.256-.17.512-.17.255 0 .51-.086.937-.086.51 0 1.022.086 1.533.17.511.171.852.427 1.278.767.34.341.596.852.852 1.449.17.596.255 1.363.255 2.214 0 1.79-.255 3.152-.766 4.09-.512.936-1.449 1.447-2.726 1.447h-2.13v-9.03zM105.119 21.552h-1.363c-.17.852-.341 1.448-.512 1.96-.17.51-.34.851-.681 1.107-.256.255-.682.425-1.193.425-.51.086-1.192.086-2.13.086-.851 0-1.533 0-1.959-.086-.51-.085-.851-.17-1.107-.34-.255-.17-.426-.426-.426-.682-.085-.34-.085-.681-.085-1.192v-6.645h3.663c.34 0 .681.085 1.022.085.34 0 .682.086 1.022.17.341.086.597.171.852.341v-2.725c-.255.17-.51.255-.852.34-.34.085-.681.17-1.022.17-.34.086-.681.086-1.022.086h-3.663V7.667c0-.426.085-.767.17-.937.17-.17.426-.17.852-.17h2.3c.767 0 1.448 0 1.96.084.51.086.936.17 1.192.426.34.256.596.597.767 1.023.17.426.426 1.022.596 1.788h1.107V5.367H89.956v.681c.085 0 .17.085.425.085.256.086.426.17.512.256.085.085.17.255.255.511 0 .256.085.511.085.852v16.185c0 .34 0 .682-.085.852 0 .255-.085.426-.255.511-.086.085-.256.256-.512.256-.255.085-.34.085-.425.085v.681h15.163v-4.77zM81.948 26.237a7.252 7.252 0 0 0 2.811-.852 5.472 5.472 0 0 0 2.045-2.13c.51-.936.766-2.214.766-3.833 0-1.192-.17-2.13-.51-2.981-.341-.852-.853-1.448-1.62-2.045-.766-.51-1.703-.852-2.896-1.107-1.192-.256-2.64-.34-4.344-.34h-1.789V7.921c0-.51.085-.852.34-1.022.256-.17.682-.17 1.364-.17h2.555c.767 0 1.449 0 1.96.085.51.085.937.17 1.192.426.341.255.597.596.767 1.022.17.426.426 1.022.596 1.789h1.108V5.367H70.619v.681c.085 0 .17.085.425.085.256.086.426.17.512.256.085.085.17.255.255.511 0 .256.085.511.085.852V23.937c0 .34 0 .596-.085.852 0 .255-.085.426-.255.511-.086.085-.256.256-.512.256-.255.085-.34.085-.425.085v.766h7.922c1.278 0 2.3 0 3.407-.17zm-5.196-1.533a.773.773 0 0 1-.256-.597c0-.255-.085-.596-.085-1.022v-8.86H78.2c1.619 0 2.811.427 3.493 1.279.681.852 1.022 2.215 1.022 4.089 0 1.277-.085 2.214-.34 2.981-.256.767-.512 1.278-.938 1.704-.426.34-.852.596-1.278.766-.51.086-1.022.17-1.533.17-.511-.084-.852-.084-1.193-.17-.255-.085-.51-.17-.681-.34zM51.537 32.37h154.441v2.044H51.537zM193.626 18.485c.426.596.767 1.108 1.193 1.619.34.51.766 1.022 1.107 1.533.34.511.681 1.022 1.107 1.533.426.597.767 1.108 1.108 1.704.34.511.596 1.107.852 1.619l7.155.085c-.767-.767-1.448-1.534-2.215-2.3-.681-.767-1.277-1.448-1.703-1.874a152.81 152.81 0 0 1-1.79-2.045c-.596-.681-1.107-1.278-1.618-1.874a27.744 27.744 0 0 1-1.448-1.874 42.579 42.579 0 0 1-1.363-2.044l.34-.426c.512-.682 1.108-1.363 1.79-2.215.681-.852 1.363-1.704 2.13-2.47.766-.852 1.448-1.619 2.214-2.3.767-.682 1.363-1.193 1.96-1.619h-4.941c-.17.426-.426.937-.767 1.533-.34.597-.681 1.278-1.193 1.96-.425.681-.937 1.448-1.363 2.214-.51.767-.937 1.449-1.448 2.13-.51.682-.937 1.363-1.363 1.874-.426.596-.766 1.022-1.022 1.448l1.278 1.79z"/>
            <path d="M193.03 25.726c-.086 0-.17-.085-.426-.085-.256-.085-.426-.17-.511-.256-.086-.085-.17-.255-.256-.51 0-.256-.085-.512-.085-.853V7.837c0-.34 0-.681.085-.852 0-.255.085-.426.256-.51.085-.086.255-.171.51-.256.256-.086.341-.086.427-.086v-.766h-6.9v.681c.085 0 .17.085.426.085.255.086.425.17.51.256.086.085.171.255.256.511 0 .256.085.511.085.852v16.185c0 .34 0 .682-.085.852 0 .255-.085.426-.255.511-.086.085-.256.256-.511.256-.256.085-.341.085-.426.085v.681h6.9v-.596zM147.2 23.852c.256-1.193.767-2.896 1.448-5.026h6.73l.937 2.726c.426 1.192.766 2.215.937 3.067.255.851.426 1.448.426 1.874h5.366c-.255-.426-.51-1.023-.851-1.704-.341-.682-.767-1.704-1.193-2.982l-4.856-13.8c-.255-.596-.34-1.107-.425-1.533-.086-.426-.086-.767-.17-1.022H149.5v.681c.085 0 .17.086.426.086.255.085.426.17.511.255.085.085.17.256.256.511v.426c0 .511-.086 1.022-.256 1.363l-3.407 8.348c-.597 1.534-1.193 2.897-1.619 3.919-.426 1.022-.852 1.959-1.107 2.64-.341.682-.597 1.278-.852 1.704-.256.426-.426.767-.596 1.108h3.833c.085-.597.255-1.449.511-2.641zm4.856-14.993l2.81 8.519h-5.792l2.982-8.519zM171.137 25.726h-.17c-.086 0-.17-.085-.426-.085-.256-.085-.426-.17-.511-.256-.086-.085-.17-.255-.256-.51 0-.256-.085-.512-.085-.853V15.93h8.178v8.007c0 .34 0 .682-.086.852 0 .255-.085.426-.255.511-.085.085-.256.256-.511.256-.256.085-.34.085-.426.085v.681h6.9v-.681c-.085 0-.17-.085-.426-.085-.256-.086-.426-.17-.511-.256-.085-.085-.17-.256-.256-.511 0-.256-.085-.511-.085-.852V7.667c0-.341 0-.682.085-.852 0-.256.085-.426.256-.511.085-.085.255-.17.511-.256.256-.085.34-.085.426-.085v-.596h-6.73v.681c.085 0 .17.085.426.085.256.086.426.17.511.256.085.085.17.255.256.511 0 .256.085.511.085.852v6.73h-8.178v-6.73c0-.34 0-.682.085-.852 0-.256.086-.426.256-.511.085-.085.256-.17.511-.256.256-.085.34-.085.426-.085v-.681h-6.9v.681c.085 0 .17.085.426.085.256.086.426.17.511.256.085.085.17.255.256.511 0 .256.085.511.085.852v16.27c0 .341 0 .597-.085.852 0 .256-.086.426-.256.511-.085.085-.255.256-.511.256-.256.085-.34.085-.426.085v.681h6.9v-.681zM37.481 7.581l-1.277-1.788-23.597 13.544-11.414-6.56c-.256.767-.426 1.449-.512 2.216l12.012 6.9L37.48 7.58z"/>
            <path d="M12.607 24.448L.341 17.378c-.085.426-.085.937-.085 1.363 0 11.159 9.03 20.274 20.274 20.274 11.159 0 20.274-9.03 20.274-20.274 0-3.322-.767-6.474-2.215-9.2L12.607 24.448z"/>
            <path d="M34.585 4.089c-.596-.596-1.192-1.022-1.789-1.533l-20.189 11.67-9.71-5.537c-.341.596-.682 1.278-1.023 1.96l10.648 6.132L34.585 4.09z"/>
            <path d="M30.752 1.193C29.985.767 29.219.34 28.367 0l-15.76 9.115-7.07-4.004c-.511.511-.937 1.108-1.448 1.704l8.433 4.855 18.23-10.477zM138 49.833l1.619-8.348h2.64c1.534 0 2.215.767 2.215 1.96 0 1.107-.681 1.703-1.96 2.13.853.34 1.364.936 1.364 1.788 0 1.533-1.022 2.385-3.067 2.385H138v.085zm1.022-.766h1.96c1.277 0 2.044-.682 2.044-1.704 0-.767-.682-1.533-1.96-1.533h-1.533l-.51 3.237zm.767-3.919h1.704c1.448 0 2.214-.681 2.214-1.704 0-.851-.51-1.277-1.533-1.277h-1.704l-.681 2.981zM149.67 48.3c-.51.937-1.107 1.619-2.3 1.619-1.363 0-2.3-1.108-2.3-2.641 0-1.874 1.193-3.493 2.811-3.493 1.193 0 1.79.682 2.13 1.704l-.767.17c-.255-.766-.681-1.192-1.363-1.192-1.107 0-2.044 1.192-2.044 2.896 0 1.193.596 1.789 1.619 1.789.937 0 1.277-.511 1.618-1.108l.596.256zM151.46 46.937v.426c0 1.193.596 1.874 1.533 1.874.851 0 1.363-.596 1.874-1.363l.681.34c-.681 1.023-1.363 1.705-2.64 1.705-1.364 0-2.215-1.023-2.215-2.556 0-2.044 1.192-3.578 2.896-3.578 1.363 0 2.13.852 2.13 2.385 0 .256-.086.511-.086.767h-4.174zm3.492-.681c.085-.17 0-.256 0-.341 0-.682-.426-1.363-1.363-1.363-1.108 0-1.619.681-1.96 1.789h3.323v-.085zM157.678 43.956H161l-.085.681h-2.556l-1.022 5.196h-.767zM160.319 49.152l2.47-5.196h1.192l.682 5.196h.596l-.34 1.789h-.597l.085-1.108h-4.003l-.341 1.108h-.596l.34-1.79h.512zm3.492 0l-.426-4.43h-.17l-2.045 4.43h2.641zM170.115 46.34c0-.255.085-.51.085-.68 0-.682-.511-1.108-1.278-1.108-.51 0-.937.255-1.278.681l-.51-.51c.51-.427 1.107-.853 1.959-.853 1.192 0 1.959.767 1.959 1.704 0 .17-.085.511-.085.937l-.426 1.96c-.17.68-.17 1.107-.17 1.448h-.767c-.085-.17-.085-.426-.085-.682-.512.426-1.023.767-1.704.767a1.709 1.709 0 0 1-1.704-1.704c0-1.193 1.108-1.96 3.152-1.96h.852zm-.17.597h-.597c-1.618 0-2.47.426-2.47 1.278 0 .596.426 1.022 1.022 1.022.596 0 1.107-.34 1.704-.767l.34-1.533zM177.185 44.637c.511-.511 1.022-.852 1.704-.852 1.278 0 1.96.852 1.96 2.47 0 2.13-1.279 3.664-2.812 3.664-.767 0-1.278-.341-1.704-.767l-.596 2.981h-.767l1.619-8.263h.681l-.085.767zm-.681 3.748c.34.511.766.852 1.533.852 1.107 0 2.13-1.278 2.13-3.067 0-1.107-.511-1.703-1.363-1.703-.597 0-1.193.255-1.619 1.022l-.681 2.896zM184.17 47.107l-1.874 2.726h-.852l1.96-2.726c-.767-.255-1.193-.851-1.193-1.533 0-.767.682-1.618 2.045-1.618h2.81l-1.192 5.877h-.767l.512-2.726h-1.449zm1.874-2.555h-1.874c-.851 0-1.277.511-1.277.937 0 .596.34.852 1.022.852h1.704l.425-1.79zM187.833 49.152l2.47-5.196h1.193l.682 5.196h.596l-.34 1.789h-.597l.085-1.108h-4.003l-.341 1.108h-.597l.341-1.79h.511zm3.408 0l-.426-4.43h-.17l-2.045 4.43h2.64zM193.456 47.363c0-2.044 1.277-3.578 2.81-3.578 1.278 0 2.045 1.022 2.045 2.556 0 1.959-1.278 3.578-2.811 3.578-1.193 0-2.044-.938-2.044-2.556zm.766.17c0 1.108.597 1.704 1.363 1.704 1.022 0 2.045-1.278 2.045-2.981 0-1.108-.597-1.79-1.363-1.79-1.023 0-2.045 1.278-2.045 3.067zM205.126 44.637l-2.556 5.196h-.766l-.767-5.196-1.022 5.196h-.767l1.193-5.877h1.278l.681 5.11 2.47-5.11h1.278l-1.192 5.877h-.767z"/>
        </g>
    </g>
</svg>
