<svg xmlns="http://www.w3.org/2000/svg" width="128" height="40" viewBox="0 0 128 40">
    <defs>
        <linearGradient id="a" x1="0%" y1="0%" y2="100%">
            <stop offset="0%" stop-color="#86C98B"/>
            <stop offset="100%" stop-color="#7DCAC5"/>
        </linearGradient>
    </defs>
    <g fill="none" fill-rule="nonzero">
        <path fill="#EE3135" d="M16.609 15.957l-.522-.086c-.13-.043-3.522-.645-4.87-3.054-1.347-2.408-.043-5.591.044-5.72l.217-.473.522.086c.13.043 3.522.645 4.87 3.053 1.347 2.409.043 5.592-.044 5.72l-.217.474zM12.26 8.086c-.261.86-.652 2.71.087 4.086.782 1.376 2.522 2.022 3.435 2.28.26-.86.652-2.71-.087-4.086-.783-1.377-2.522-2.022-3.435-2.28zM19.957 24.344l-.392-.301c-.13-.086-3-2.323-3-5.204 0-2.882 2.87-5.119 3-5.205l.392-.3.39.3c.131.086 3 2.323 3 5.205 0 2.881-2.869 5.118-3 5.204l-.39.301zm0-9.376c-.696.645-2.087 2.15-2.087 3.828 0 1.677 1.39 3.182 2.087 3.828.695-.646 2.086-2.15 2.086-3.828.044-1.678-1.347-3.183-2.086-3.828z"/>
        <g fill="url(#a)">
            <path d="M19.957 2.538c-9.74 0-17.653 7.828-17.653 17.462s7.913 17.462 17.653 17.462c9.739 0 17.652-7.828 17.652-17.462S29.696 2.538 19.957 2.538zm7.739 31.699c-2.13-1.549-3.435-3.914-3.435-6.409v-1.979h.478c1.13 0 2.74-.215 3.913-1.247 1.913-1.677 1.783-4.774 1.74-4.903l-.044-.516-.522-.086c-.13-.043-3.217-.516-5.13 1.161-1.826 1.591-1.783 4.516-1.74 4.86v2.667c0 2.71 1.305 5.247 3.435 7.054-.695.3-1.391.516-2.13.73-1.218-1.72-1.913-4.558-1.913-6.88v-4.216h-1.305v4.215c0 2.409.653 5.247 1.87 7.183-.74.129-1.478.215-2.26.258v-8.86h-1.305v8.86a19.109 19.109 0 0 1-2.261-.258c1.217-1.979 1.87-4.817 1.87-7.183v-4.215h-1.305v4.215c0 2.366-.695 5.204-1.913 6.882-.739-.215-1.435-.43-2.13-.731 2.13-1.764 3.434-4.344 3.434-7.054v-2.667c0-.387.044-3.269-1.739-4.86-1.913-1.677-5-1.161-5.13-1.161l-.609.086v.516c0 .129-.174 3.226 1.74 4.903 1.173 1.032 2.825 1.247 3.912 1.247h.479v1.979c0 2.495-1.305 4.86-3.435 6.409C7.13 31.484 3.652 26.15 3.652 20c0-8.903 7.305-16.129 16.305-16.129S36.26 11.097 36.26 20c.043 6.15-3.478 11.484-8.565 14.237zm-3.435-9.678c.043-.817.26-2.451 1.304-3.355 1.044-.903 2.652-.946 3.522-.903-.044.817-.26 2.452-1.304 3.355s-2.696.946-3.522.903zm-8.565 0c-.826.043-2.479 0-3.522-.903-1.044-.903-1.261-2.495-1.304-3.355.87-.043 2.478 0 3.521.903 1 .904 1.261 2.538 1.305 3.355z"/>
            <path d="M33.74 13.376c-.131-.043-2.827-1.118-4.914.043-2.087 1.162-2.565 4-2.565 4.13l-.044.516.479.172c.087.043 1.26.473 2.608.473.74 0 1.566-.13 2.305-.56 2.087-1.16 2.565-4 2.565-4.128l.087-.517-.522-.129zm-2.783 3.7c-1.087.601-2.479.343-3.261.171.217-.73.739-2.107 1.782-2.666 1.087-.603 2.479-.344 3.261-.172-.217.73-.739 2.064-1.782 2.666zM11.087 13.42c-2.087-1.162-4.783-.13-4.913-.044l-.478.172.087.517c0 .129.478 2.967 2.565 4.129.739.43 1.522.559 2.304.559 1.391 0 2.565-.473 2.609-.473l.478-.172-.087-.517c0-.129-.478-3.01-2.565-4.172zM9 17.074c-1.087-.602-1.565-1.935-1.783-2.666.74-.215 2.174-.43 3.261.172 1.044.602 1.565 1.935 1.783 2.666-.783.172-2.218.43-3.261-.172zM20.348 4.516l-.391-.3-.392.3c-.087.086-2.304 1.807-2.304 4.043 0 2.237 2.217 3.957 2.304 4.043l.392.301.39-.3c.088-.087 2.305-1.807 2.305-4.044.044-2.236-2.174-3.957-2.304-4.043zm-.391 6.71c-.522-.516-1.392-1.549-1.392-2.667 0-1.118.87-2.15 1.392-2.667.521.517 1.39 1.549 1.39 2.667.044 1.118-.825 2.15-1.39 2.667z"/>
            <path d="M28.74 12.817c1.347-2.408.043-5.591-.044-5.72l-.218-.473-.521.086c-.13.043-3.522.645-4.87 3.053-1.348 2.409-.044 5.592.043 5.72l.218.474.522-.086c.13-.043 3.521-.645 4.87-3.054zm-4.61 1.635c-.26-.86-.652-2.71.087-4.086.783-1.377 2.522-2.022 3.435-2.28.261.86.652 2.71-.087 4.086-.739 1.376-2.522 2.065-3.435 2.28z"/>
            <path d="M19.957.258C8.957.258 0 9.118 0 20c0 10.882 8.957 19.742 19.957 19.742S39.913 30.882 39.913 20C39.957 9.118 31 .258 19.957.258zm0 38.194C9.696 38.452 1.304 30.194 1.304 20c0-10.15 8.348-18.452 18.653-18.452 10.26 0 18.652 8.258 18.652 18.452 0 10.194-8.348 18.452-18.652 18.452z"/>
        </g>
        <g fill="#4A5565">
            <path d="M45.216 14.128h1.686v3.02h3.113v-3.02H51.7v7.617h-1.686V18.68h-3.113v3.064h-1.686zM53.69 17.915c0-2.17 1.728-3.915 4.106-3.915 2.377 0 4.107 1.745 4.107 3.915s-1.73 3.915-4.107 3.915c-2.421.042-4.107-1.745-4.107-3.915zm6.44 0c0-1.32-.95-2.383-2.334-2.383-1.384 0-2.335 1.064-2.335 2.383s.951 2.383 2.335 2.383c1.383 0 2.334-1.064 2.334-2.383zM63.848 14.128h3.588c.865 0 1.6.255 2.032.68.346.34.518.766.518 1.32 0 .85-.475 1.319-.994 1.66.908.34 1.427.85 1.427 1.872 0 1.404-1.167 2.085-2.897 2.085h-3.674v-7.617zm3.199 3.063c.735 0 1.21-.255 1.21-.808 0-.51-.389-.766-1.124-.766h-1.686v1.617h1.6v-.043zm.475 3.064c.735 0 1.21-.255 1.21-.85 0-.511-.388-.81-1.253-.81h-1.945v1.66h1.988zM72.234 14.128h1.686v2.595h1.643c1.772 0 2.81.98 2.81 2.468 0 1.575-1.124 2.554-2.94 2.554h-3.199v-7.617zm1.73 4v2.085h1.513c.82 0 1.253-.34 1.253-1.064 0-.638-.432-1.021-1.297-1.021h-1.47zm5.317-4h1.686v7.617H79.28v-7.617zM83.258 14.128h5.836v1.489h-4.15v1.532h3.631v1.49h-3.631v1.616h4.193v1.49h-5.88zM45.216 26.128h1.686v3.319l3.113-3.32h2.031l-3.155 3.235 3.285 4.383h-1.989L47.81 30.51l-.908.893v2.34h-1.686zM52.781 29.915c0-2.17 1.73-3.915 4.107-3.915 2.378 0 4.107 1.745 4.107 3.915s-1.73 3.915-4.107 3.915c-2.378 0-4.107-1.745-4.107-3.915zm6.441 0c0-1.32-.95-2.383-2.334-2.383-1.383 0-2.334 1.064-2.334 2.383s.95 2.383 2.334 2.383c1.383 0 2.334-1.064 2.334-2.383zM64.41 27.66h-2.334v-1.532h6.397v1.532H66.14v6.042h-1.686V27.66zM70.203 26.128h5.836v1.489h-4.15v1.532h3.63v1.49h-3.63v1.616h4.193v1.49h-5.88zM84.598 26.128v7.617h-1.686v-6.128h-2.248v.596c0 4.468-.735 5.617-2.507 5.617-.26 0-.692-.043-.908-.085l.13-1.362c.086 0 .173.043.259.043.908 0 1.427-.596 1.427-4.681V26.17h5.533v-.042zM86.89 26.128h1.685v2.595h1.643c1.772 0 2.81.98 2.81 2.468 0 1.575-1.124 2.554-2.94 2.554h-3.242v-7.617h.043zm1.685 4v2.085h1.513c.821 0 1.254-.34 1.254-1.064 0-.638-.433-1.021-1.297-1.021h-1.47zM94.8 26.128h1.686v3.02h3.112v-3.02h1.686v7.617h-1.686V30.68h-3.112v3.064H94.8zM110.276 33.702h-1.686v-4.979l-3.372 4.98h-1.6v-7.575h1.687v4.978l3.415-4.978h1.6v7.574zM112.567 26.128h1.686v3.319l3.113-3.32h2.031l-3.069 3.192 3.286 4.383h-2.032l-2.378-3.234-.908.894v2.34h-1.686v-7.574zM127.74 33.702h-1.685v-4.979l-3.372 4.98h-1.6v-7.575h1.686v4.978l3.415-4.978h1.6v7.574z"/>
        </g>
        <g fill="#4A5565" opacity=".5">
            <path d="M45.215 6.387h1.032v1.505l1.334-1.505h1.204l-1.376 1.505 1.548 2.194H47.71l-.99-1.42-.473.517v.903h-1.032V6.387zM51.538 6.387c.73 0 1.247.344 1.247.903 0 .43-.258.688-.602.818.43.129.731.43.731.946 0 .645-.516.989-1.376.989h-2.022V6.344h2.022v.043zm-.215 1.505c.3 0 .43-.172.43-.387 0-.172-.13-.344-.43-.344h-.732v.731h.732zm.086 1.377c.344 0 .473-.172.473-.387 0-.215-.13-.344-.516-.344h-.818v.73h.86zM53.56 9.01c0-.816.601-1.16 1.505-1.16.387 0 .645.042.903.172v-.044c0-.43-.258-.688-.774-.688-.388 0-.689.086-1.033.215l-.258-.817a3.31 3.31 0 0 1 1.42-.3c.559 0 .989.171 1.247.43.258.257.387.687.387 1.16v2.151h-1.032v-.387c-.258.301-.602.473-1.119.473-.688-.043-1.247-.43-1.247-1.204zm2.408-.214v-.172c-.172-.086-.43-.13-.688-.13-.43 0-.732.173-.732.517 0 .3.215.43.56.43.516 0 .86-.258.86-.645zM57.99 6.387h1.032v.516c.258-.344.602-.602 1.16-.602.861 0 1.678.688 1.678 1.936 0 1.247-.817 1.892-1.677 1.892-.56 0-.903-.258-1.161-.56v1.592h-1.033V6.387zm2.838 1.85c0-.603-.43-1.033-.903-1.033-.473 0-.903.387-.903 1.033 0 .602.387 1.032.903 1.032s.903-.387.903-1.032zM65.602 7.29h-1.075v2.796h-1.075V7.29h-1.076v-.903h3.27v.903zM65.946 9.01c0-.816.602-1.16 1.506-1.16.387 0 .645.042.903.172v-.044c0-.43-.258-.688-.774-.688-.387 0-.689.086-1.033.215l-.258-.817a3.31 3.31 0 0 1 1.42-.3c.559 0 .989.171 1.247.43.258.257.387.687.387 1.16v2.151h-1.032v-.387c-.258.301-.602.473-1.118.473-.646-.043-1.248-.43-1.248-1.204zm2.409-.214v-.172c-.172-.086-.43-.13-.688-.13-.43 0-.732.173-.732.517 0 .3.216.43.56.43.559 0 .86-.258.86-.645zM73.774 6.387v3.699h-1.032V7.29h-.946c0 2.452-.43 2.839-1.334 2.839-.129 0-.387-.043-.516-.043l.086-.86h.215c.387 0 .602-.215.602-2.839h2.925z"/>
        </g>
    </g>
</svg>
