<?xml version="1.0" encoding="UTF-8"?>
<!-- Generator: Adobe Illustrator 22.0.1, SVG Export Plug-In . SVG Version: 6.00 Build 0)  -->
<svg version="1.1" xmlns="http://www.w3.org/2000/svg" xmlns:xlink="http://www.w3.org/1999/xlink" x="0px" y="0px" width="1500px" height="1500px" viewBox="0 0 1500 1500" enable-background="new 0 0 1500 1500" xml:space="preserve">
<g id="d">
	<line fill="none" stroke="#515151" stroke-width="2" stroke-miterlimit="10" x1="831.5" y1="431" x2="871.5" y2="471"/>
	<line fill="none" stroke="#515151" stroke-width="2" stroke-miterlimit="10" x1="811.5" y1="473" x2="851.5" y2="513"/>
	<line fill="none" stroke="#515151" stroke-width="2" stroke-miterlimit="10" x1="985.5" y1="467" x2="945.5" y2="507"/>
	<line fill="none" stroke="#515151" stroke-width="2" stroke-miterlimit="10" x1="985.5" y1="584" x2="945.5" y2="624"/>
	<line fill="none" stroke="#515151" stroke-width="2" stroke-miterlimit="10" x1="851.5" y1="539" x2="811.5" y2="579"/>
	<line fill="none" stroke="#515151" stroke-width="2" stroke-miterlimit="10" x1="985.5" y1="768" x2="945.5" y2="808"/>
	<line fill="none" stroke="#515151" stroke-width="2" stroke-miterlimit="10" x1="883.5" y1="850" x2="923.5" y2="810"/>
	<line fill="none" stroke="#515151" stroke-width="2" stroke-miterlimit="10" x1="961.5" y1="882" x2="921.5" y2="842"/>
	<line fill="none" stroke="#515151" stroke-width="2" stroke-miterlimit="10" x1="490.5" y1="790" x2="530.5" y2="750"/>
</g>
<g id="t">
	<g>
		<path fill="#86C98B" d="M1015.2,582.3h-0.1l-6.1,3.3l-0.9-3.6l7.7-4.1h4V613h-4.6V582.3z"/>
		<path fill="#86C98B" d="M1033,610.2c0-2,1.3-3.4,3.2-3.4s3.2,1.4,3.2,3.4c0,1.9-1.2,3.4-3.2,3.4    C1034.3,613.6,1033,612.1,1033,610.2z"/>
		<path fill="#86C98B" d="M1066.6,577.9v3.1l-15.3,32h-4.9l15.2-31.1v-0.1h-17.2v-3.9H1066.6z"/>
	</g>
	<g>
		<path fill="#86C98B" d="M881.5,562.1c0-4.4,2.6-7.6,7-9.4l-0.1-0.2c-3.9-1.8-5.6-4.9-5.6-7.9c0-5.6,4.7-9.3,10.9-9.3    c6.8,0,10.2,4.3,10.2,8.6c0,3-1.5,6.2-5.8,8.2v0.2c4.4,1.7,7.1,4.8,7.1,9.1c0,6.1-5.2,10.2-11.9,10.2    C885.9,571.6,881.5,567.2,881.5,562.1z M900.4,561.9c0-4.3-3-6.3-7.7-7.7c-4.1,1.2-6.3,3.9-6.3,7.2c-0.2,3.6,2.5,6.7,7,6.7    C897.6,568.1,900.4,565.5,900.4,561.9z M887.3,544.3c0,3.5,2.6,5.4,6.7,6.5c3-1,5.3-3.2,5.3-6.4c0-2.8-1.7-5.7-5.9-5.7    C889.5,538.7,887.3,541.3,887.3,544.3z"/>
		<path fill="#86C98B" d="M910,568.2c0-2,1.3-3.4,3.2-3.4s3.2,1.4,3.2,3.4c0,1.9-1.2,3.4-3.2,3.4C911.3,571.6,910,570.1,910,568.2z"/>
		<path fill="#86C98B" d="M944.1,553.1c0,11.9-4.4,18.5-12.2,18.5c-6.9,0-11.5-6.4-11.6-18c0-11.8,5.1-18.3,12.2-18.3    C939.9,535.3,944.1,541.9,944.1,553.1z M925.1,553.6c0,9.1,2.8,14.3,7.1,14.3c4.9,0,7.2-5.7,7.2-14.6c0-8.6-2.2-14.3-7.1-14.3    C928.1,539,925.1,544.1,925.1,553.6z"/>
	</g>
	<g>
		<path fill="#86C98B" d="M625.2,772.3h-0.1l-6.1,3.3l-0.9-3.6l7.7-4.1h4.1V803h-4.6V772.3z"/>
		<path fill="#86C98B" d="M652.9,772.3h-0.1l-6.1,3.3l-0.9-3.6l7.7-4.1h4.1V803h-4.6V772.3z"/>
		<path fill="#86C98B" d="M670.7,800.2c0-2,1.4-3.4,3.2-3.4c1.9,0,3.2,1.4,3.2,3.4c0,1.9-1.2,3.4-3.2,3.4    C672,803.6,670.7,802.1,670.7,800.2z"/>
		<path fill="#86C98B" d="M681.5,803v-2.9l3.7-3.6c9-8.5,13-13.1,13.1-18.4c0-3.6-1.7-6.9-7-6.9c-3.2,0-5.8,1.6-7.5,3l-1.5-3.3    c2.4-2.1,5.9-3.6,9.9-3.6c7.6,0,10.7,5.2,10.7,10.2c0,6.5-4.7,11.7-12.1,18.8l-2.8,2.6v0.1h15.8v3.9H681.5z"/>
	</g>
	<g>
		<path fill="#86C98B" d="M566.2,470.3h-0.1l-6.1,3.3l-0.9-3.6l7.7-4.1h4.1V501h-4.6V470.3z"/>
		<path fill="#86C98B" d="M603.7,469.2c-1-0.1-2.2,0-3.6,0.2c-7.5,1.2-11.4,6.7-12.2,12.5h0.2c1.7-2.2,4.6-4,8.5-4    c6.2,0,10.6,4.5,10.6,11.3c0,6.4-4.4,12.4-11.7,12.4c-7.5,0-12.4-5.8-12.4-15c0-6.9,2.5-12.4,5.9-15.8c2.9-2.9,6.8-4.6,11.2-5.2    c1.4-0.2,2.6-0.3,3.5-0.3V469.2z M602.3,489.5c0-5-2.9-8-7.2-8c-2.9,0-5.5,1.8-6.8,4.3c-0.3,0.5-0.5,1.2-0.5,2.1    c0.1,5.8,2.8,10,7.7,10C599.6,497.9,602.3,494.5,602.3,489.5z"/>
		<path fill="#86C98B" d="M611.7,498.2c0-2,1.4-3.4,3.2-3.4c1.9,0,3.2,1.4,3.2,3.4c0,1.9-1.2,3.4-3.2,3.4    C613,501.6,611.7,500.1,611.7,498.2z"/>
		<path fill="#86C98B" d="M632.8,470.3h-0.1l-6.1,3.3l-0.9-3.6l7.7-4.1h4.1V501h-4.6V470.3z"/>
	</g>
	<g>
		<path fill="#86C98B" d="M388.2,753.3h-0.1l-6.1,3.3l-0.9-3.6l7.7-4.1h4.1V784h-4.6V753.3z"/>
		<path fill="#86C98B" d="M406,781.2c0-2,1.4-3.4,3.2-3.4c1.9,0,3.2,1.4,3.2,3.4c0,1.9-1.2,3.4-3.2,3.4    C407.3,784.6,406,783.1,406,781.2z"/>
		<path fill="#86C98B" d="M431.5,784v-9.6h-16.3v-3.1l15.7-22.4h5.1v21.8h4.9v3.7H436v9.6H431.5z M431.5,770.7V759    c0-1.8,0.1-3.7,0.2-5.5h-0.2c-1.1,2.1-1.9,3.6-2.9,5.2l-8.6,11.9v0.1H431.5z"/>
	</g>
	<g>
		<path fill="#86C98B" d="M1001.1,812.5c1.3,0.9,4.5,2.2,7.8,2.2c6.1,0,8-3.9,7.9-6.8c-0.1-4.9-4.5-7-9.1-7h-2.6v-3.6h2.6    c3.5,0,7.8-1.8,7.8-5.9c0-2.8-1.8-5.3-6.2-5.3c-2.8,0-5.5,1.2-7,2.3l-1.2-3.5c1.8-1.4,5.4-2.7,9.2-2.7c6.9,0,10,4.1,10,8.4    c0,3.6-2.2,6.7-6.5,8.3v0.1c4.3,0.9,7.8,4.1,7.8,9c0,5.6-4.4,10.5-12.8,10.5c-3.9,0-7.4-1.2-9.1-2.4L1001.1,812.5z"/>
		<path fill="#86C98B" d="M1028,815.2c0-2,1.3-3.4,3.2-3.4s3.2,1.4,3.2,3.4c0,1.9-1.2,3.4-3.2,3.4    C1029.3,818.6,1028,817.1,1028,815.2z"/>
		<path fill="#86C98B" d="M1062.1,800.1c0,11.9-4.4,18.5-12.2,18.5c-6.9,0-11.5-6.4-11.6-18c0-11.8,5.1-18.3,12.2-18.3    C1057.9,782.3,1062.1,788.9,1062.1,800.1z M1043.1,800.6c0,9.1,2.8,14.3,7.1,14.3c4.9,0,7.2-5.7,7.2-14.6c0-8.6-2.2-14.3-7.1-14.3    C1046.1,786,1043.1,791.1,1043.1,800.6z"/>
	</g>
	<g>
		<path fill="#86C98B" d="M840.2,373.3h-0.1l-6.1,3.3l-0.9-3.6l7.7-4.1h4V404h-4.6V373.3z"/>
		<path fill="#86C98B" d="M858,401.2c0-2,1.3-3.4,3.2-3.4s3.2,1.4,3.2,3.4c0,1.9-1.2,3.4-3.2,3.4C859.3,404.6,858,403.1,858,401.2z"/>
		<path fill="#86C98B" d="M879.1,373.3H879l-6.1,3.3L872,373l7.7-4.1h4.1V404h-4.6V373.3z"/>
	</g>
	<g>
		<path fill="#86C98B" d="M890.2,1006.3h-0.1l-6.1,3.3l-0.9-3.6l7.7-4.1h4v35.1h-4.6V1006.3z"/>
		<path fill="#86C98B" d="M908.8,1031.5c1.3,0.9,4.5,2.2,7.8,2.2c6.1,0,8-3.9,7.9-6.8c-0.1-4.9-4.5-7-9.1-7h-2.6v-3.6h2.6    c3.5,0,7.8-1.8,7.8-5.9c0-2.8-1.8-5.3-6.2-5.3c-2.8,0-5.5,1.2-7,2.3l-1.2-3.5c1.8-1.4,5.4-2.7,9.2-2.7c6.9,0,10,4.1,10,8.4    c0,3.6-2.2,6.7-6.5,8.3v0.1c4.3,0.9,7.8,4.1,7.8,9c0,5.6-4.4,10.5-12.8,10.5c-3.9,0-7.4-1.2-9.1-2.4L908.8,1031.5z"/>
		<path fill="#86C98B" d="M935.7,1034.2c0-2,1.3-3.4,3.2-3.4s3.2,1.4,3.2,3.4c0,1.9-1.2,3.4-3.2,3.4    C937,1037.6,935.7,1036.1,935.7,1034.2z"/>
		<path fill="#86C98B" d="M946.5,1037v-2.9l3.7-3.6c9-8.5,13-13.1,13.1-18.4c0-3.6-1.7-6.9-7-6.9c-3.2,0-5.8,1.6-7.5,3l-1.5-3.3    c2.4-2.1,5.9-3.6,9.9-3.6c7.6,0,10.7,5.2,10.7,10.2c0,6.5-4.7,11.7-12.1,18.8l-2.8,2.6v0.1h15.8v3.9H946.5z"/>
	</g>
</g>
<g id="s">
	<path fill="#515151" d="M1002.5,553v-12h-18v44h10v-14h142v90h-142v-23h-10v131h10v-44h142v156h-142v-55h-10v55h-24v10h176v241   h-410V901h85v-10h83v-10h-10v-32h-10v32h-383v-92h-36v114h-90V661h90v73h36v-86h253v44h130v96h10V638h-72v-60h-10v52h-95v8h-216v-9   h-104V344h415v130h10v-42h20v-10h-20v-78h101v78h-24v10h95v36h18V326h-657v597h339v251h470V553H1002.5z M812.5,648h62v34h-79v-34   H812.5z M785.5,648v34h-31v-34H785.5z M487.5,668v62h-10v-62H487.5z M475.5,668v62h-4v-62H475.5z M469.5,668v62h-10v-62H469.5z    M991.5,344v70h-7h-53v-70H991.5z M383.5,396v175h-13V396H383.5z M368.5,396v175h-4V396H368.5z M349.5,396h13v175h-13V396z    M455.5,919h-106V661h12v246h4h90V919z M688.5,1078V978h13v100H688.5z M703.5,1078V978h4v100H703.5z M709.5,1078V978h13v100H709.5z    M1073.5,1170h-164v-13h164V1170z M1073.5,1155h-164v-4h164V1155z M1073.5,1149h-164v-13h164V1149z M994.5,715v-44h106v44H994.5z    M1110.5,715v-44h26v44H1110.5z"/>
</g>
<g id="m">
	<g>
		<g>
			<path fill="#86C98B" d="M1133.5,728v143h-58V728H1133.5 M1135.5,726h-62v147h62V726L1135.5,726z"/>
		</g>
		<g>
			<path fill="#86C98B" d="M1125.5,734c1.1,0,2,0.9,2,2v108c0,12.1-9.9,22-22,22h-2c-12.1,0-22-9.9-22-22V736c0-1.1,0.9-2,2-2     H1125.5 M1125.5,732h-42c-2.2,0-4,1.8-4,4v108c0,13.2,10.8,24,24,24h2c13.3,0,24-10.7,24-24V736     C1129.5,733.8,1127.7,732,1125.5,732L1125.5,732z"/>
		</g>
		<g>
			<path fill="#86C98B" d="M1117.5,742c1.1,0,2,0.9,2,2v82c0,7.7-6.3,14-14,14h-2c-7.7,0-14-6.3-14-14v-82c0-1.1,0.9-2,2-2H1117.5      M1117.5,740h-26c-2.2,0-4,1.8-4,4v82c0,8.8,7.2,16,16,16h2c8.8,0,16-7.2,16-16v-82C1121.5,741.8,1119.7,740,1117.5,740     L1117.5,740z"/>
		</g>
		<circle fill="none" stroke="#86C98B" stroke-miterlimit="10" cx="1104.5" cy="757" r="3"/>
	</g>
	<g>
		<polyline fill="none" stroke="#86C98B" stroke-width="2" stroke-miterlimit="10" points="1091.5,590 1134.5,590 1134.5,620     1091.5,620   "/>
		<g>
			<path fill="#86C98B" d="M1091.4,591c7.9,0.5,28.6,2.4,36.1,5.3v17.4c-7.5,2.9-28.2,4.8-36.1,5.3c-7.7,0-13.9-6.3-13.9-14     C1077.5,597.3,1083.7,591,1091.4,591 M1091.5,589c-8.8,0-16,7.2-16,16l0,0c0,8.8,7.2,16,16,16c0,0,30-2,38-6v-20     C1121.5,591,1091.5,589,1091.5,589L1091.5,589z"/>
		</g>
	</g>
	<g>
		<polyline fill="none" stroke="#86C98B" stroke-width="2" stroke-miterlimit="10" points="1003.5,744 1003.5,727 1055.5,727     1055.5,744   "/>
		<g>
			<path fill="#86C98B" d="M1043.7,728c10.4,9.8,10.8,16,10.8,16c0,13.1-11,19-22,19h-6c-11,0-22-5.9-22-19c0-0.1,0.3-6.3,10.8-16     H1043.7 M1044.5,726h-30c-12,11-12,18-12,18c0,13.3,10.7,21,24,21h6c13.3,0,24-7.7,24-21C1056.5,744,1056.5,737,1044.5,726     L1044.5,726z"/>
		</g>
		<g>
			<path fill="#86C98B" d="M1029.5,734c10.8,0,20,5.5,20,12s-9.2,12-20,12c-10.8,0-20-5.5-20-12S1018.7,734,1029.5,734 M1029.5,732     c-12.2,0-22,6.3-22,14s9.8,14,22,14s22-6.3,22-14S1041.7,732,1029.5,732L1029.5,732z"/>
		</g>
		<circle fill="none" stroke="#86C98B" stroke-miterlimit="10" cx="1029.5" cy="743" r="3"/>
	</g>
	<g>
		<polyline fill="none" stroke="#86C98B" stroke-width="2" stroke-miterlimit="10" points="1012.5,642 1012.5,659 1064.5,659     1064.5,642   "/>
		<g>
			<path fill="#86C98B" d="M1041.5,623c11,0,22,5.9,22,19c0,0.1-0.3,6.3-10.8,16h-28.4c-10.4-9.8-10.8-16-10.8-16     c0-13.1,11-19,22-19H1041.5 M1041.5,621h-6c-13.3,0-24,7.7-24,21c0,0,0,7,12,18h30c12-11,12-18,12-18     C1065.5,628.7,1054.8,621,1041.5,621L1041.5,621z"/>
		</g>
		<g>
			<path fill="#86C98B" d="M1038.5,628c10.8,0,20,5.5,20,12s-9.2,12-20,12s-20-5.5-20-12S1027.7,628,1038.5,628 M1038.5,626     c-12.2,0-22,6.3-22,14s9.8,14,22,14s22-6.3,22-14S1050.7,626,1038.5,626L1038.5,626z"/>
		</g>
		<circle fill="none" stroke="#86C98B" stroke-miterlimit="10" cx="1038.5" cy="643" r="3"/>
	</g>
	<g>
		<g>
			<path fill="#86C98B" d="M637.5,651v50h-50v-50H637.5 M639.5,649h-54v54h54V649L639.5,649z"/>
		</g>
		<g>
			<line fill="none" stroke="#86C98B" stroke-width="2" stroke-miterlimit="10" x1="586.5" y1="656" x2="638.5" y2="656"/>
		</g>
		<g>
			<path fill="#86C98B" d="M629.5,663c1.1,0,2,0.9,2,2v28c0,1.1-0.9,2-2,2h-34c-1.1,0-2-0.9-2-2v-28c0-1.1,0.9-2,2-2H629.5      M629.5,661h-34c-2.2,0-4,1.8-4,4v28c0,2.2,1.8,4,4,4h34c2.2,0,4-1.8,4-4v-28C633.5,662.8,631.7,661,629.5,661L629.5,661z"/>
		</g>
		
			<circle fill-rule="evenodd" clip-rule="evenodd" fill="none" stroke="#86C98B" stroke-miterlimit="10" cx="612.5" cy="671" r="3.5"/>
	</g>
	<g>
		<g>
			<path fill="#86C98B" d="M741.5,651v50h-50v-50H741.5 M743.5,649h-54v54h54V649L743.5,649z"/>
		</g>
		<g>
			<line fill="none" stroke="#86C98B" stroke-width="2" stroke-miterlimit="10" x1="690.5" y1="656" x2="742.5" y2="656"/>
		</g>
		<g>
			<path fill="#86C98B" d="M706.5,665c2.8,0,5,2.2,5,5s-2.2,5-5,5s-5-2.2-5-5S703.7,665,706.5,665 M706.5,663c-3.9,0-7,3.1-7,7     s3.1,7,7,7s7-3.1,7-7S710.4,663,706.5,663L706.5,663z"/>
		</g>
		<g>
			<path fill="#86C98B" d="M726.5,683c2.8,0,5,2.2,5,5s-2.2,5-5,5s-5-2.2-5-5S723.7,683,726.5,683 M726.5,681c-3.9,0-7,3.1-7,7     s3.1,7,7,7s7-3.1,7-7S730.4,681,726.5,681L726.5,681z"/>
		</g>
		<g>
			<path fill="#86C98B" d="M706.5,682c3.3,0,6,2.7,6,6s-2.7,6-6,6s-6-2.7-6-6S703.2,682,706.5,682 M706.5,680c-4.4,0-8,3.6-8,8     s3.6,8,8,8s8-3.6,8-8S710.9,680,706.5,680L706.5,680z"/>
		</g>
		<g>
			<path fill="#86C98B" d="M726.5,664c3.3,0,6,2.7,6,6s-2.7,6-6,6s-6-2.7-6-6S723.2,664,726.5,664 M726.5,662c-4.4,0-8,3.6-8,8     s3.6,8,8,8s8-3.6,8-8S730.9,662,726.5,662L726.5,662z"/>
		</g>
	</g>
	<g>
		<line fill="none" stroke="#86C98B" stroke-width="2" stroke-miterlimit="10" x1="638.5" y1="650" x2="690.5" y2="650"/>
	</g>
	<g>
		<line fill="none" stroke="#86C98B" stroke-width="2" stroke-miterlimit="10" x1="638.5" y1="656" x2="690.5" y2="656"/>
	</g>
	<g>
		<line fill="none" stroke="#86C98B" stroke-width="2" stroke-miterlimit="10" x1="638.5" y1="702" x2="690.5" y2="702"/>
	</g>
	<g>
		<g>
			<path fill="#86C98B" d="M1047.5,844v34h-50v-34H1047.5 M1049.5,842h-54v38h54V842L1049.5,842z"/>
		</g>
		<g>
			<path fill="#86C98B" d="M1022.5,850c6.1,0,11,4.9,11,11s-4.9,11-11,11s-11-4.9-11-11S1016.4,850,1022.5,850 M1022.5,848     c-7.2,0-13,5.8-13,13s5.8,13,13,13s13-5.8,13-13S1029.7,848,1022.5,848L1022.5,848z"/>
		</g>
		<circle fill="none" stroke="#86C98B" stroke-miterlimit="10" cx="1022.5" cy="861" r="3"/>
	</g>
</g>
</svg>