<svg xmlns="http://www.w3.org/2000/svg" width="91" height="80" viewBox="0 0 91 80">
    <defs>
        <linearGradient id="a" x1="0%" y1="50%" y2="50%">
            <stop offset="0%" stop-color="#86C98B"/>
            <stop offset="49.057%" stop-color="#86D3A4"/>
            <stop offset="100%" stop-color="#7DCAC5"/>
        </linearGradient>
    </defs>
    <g fill="none" fill-rule="evenodd">
        <path fill="#FFF" d="M-127-808h1366v8603H-127z"/>
        <path fill="url(#a)" fill-rule="nonzero" d="M9.007 77.254a1.334 1.334 0 0 1 0 2.669H7.215a1.334 1.334 0 1 1 0-2.669h1.792zm8.812-3.733a1.334 1.334 0 1 1 0 2.669h-1.792a1.334 1.334 0 1 1 0-2.67h1.792zm9.796 3.733a1.334 1.334 0 1 1 0 2.669h-1.792a1.334 1.334 0 1 1 0-2.669h1.792zm8.812-3.733a1.334 1.334 0 0 1 0 2.669h-1.792a1.334 1.334 0 1 1 0-2.67h1.792zm9.796 3.733a1.334 1.334 0 0 1 0 2.669h-1.792a1.334 1.334 0 1 1 0-2.669h1.792zm8.812-3.733a1.334 1.334 0 1 1 0 2.669h-1.792a1.334 1.334 0 1 1 0-2.67h1.792zm9.796 3.733a1.334 1.334 0 1 1 0 2.669H63.04a1.334 1.334 0 1 1 0-2.669h1.792zm8.812-3.733a1.334 1.334 0 1 1 0 2.669h-1.792a1.334 1.334 0 1 1 0-2.67h1.792zm9.796 3.733a1.334 1.334 0 0 1 0 2.669h-1.792a1.334 1.334 0 1 1 0-2.669h1.792zM19.005.078c-5.397 0-9.787 4.39-9.787 9.786 0 5.397 4.39 9.787 9.787 9.787 5.396 0 9.787-4.39 9.787-9.787 0-5.396-4.39-9.786-9.787-9.786zm0 16.904c-3.925 0-7.118-3.193-7.118-7.118a7.126 7.126 0 0 1 7.118-7.118 7.126 7.126 0 0 1 7.118 7.118 7.126 7.126 0 0 1-7.118 7.118zm66.7 6.905C85.698 11.573 74.35 1.552 60.39 1.511l-.035-.001h-.051c-4.964 0-9.77 1.273-13.894 3.68a1.334 1.334 0 0 0 1.345 2.305 24.241 24.241 0 0 1 7.348-2.789c-.756 1.028-1.446 2.291-2.054 3.777-1.558 3.804-2.467 8.743-2.598 14.024l-12.677-.017c.311-4.792 2.317-8.87 6.103-12.43a1.334 1.334 0 0 0-1.827-1.944c-4.7 4.418-6.985 9.555-6.987 15.706l.001.032c-.008.06-.014.122-.014.185v1.757c0 2.762 2.225 5.01 4.959 5.01a4.945 4.945 0 0 0 4.15-2.273 4.987 4.987 0 0 0 4.178 2.273 4.985 4.985 0 0 0 4.1-2.158 4.984 4.984 0 0 0 5.043 2.067v16.254h-28.83l-4.77-17.977a6.055 6.055 0 0 0-2.831-3.709 6.052 6.052 0 0 0-4.332-.69l-.656-2.48a1.334 1.334 0 0 0-1.631-.948l-6.499 1.72a1.334 1.334 0 0 0-.948 1.631l2.7 10.199a1.335 1.335 0 0 0 2.579-.683l-2.358-8.908 3.919-1.038 7.59 28.672h-4.092l-3.307-13.393a1.334 1.334 0 1 0-2.591.64l3.15 12.753h-3.828c-.736 0-1.334.598-1.334 1.335v6.722c0 .737.597 1.334 1.334 1.334h6.924v9.962c0 .737.598 1.335 1.335 1.335h5.297c.737 0 1.335-.598 1.335-1.335V62.15H57.48v3.54H28.95a1.334 1.334 0 0 0 0 2.668h38.715a1.334 1.334 0 1 0 0-2.669h-3.671V62.15h6.52v9.072c0 .737.598 1.335 1.335 1.335h5.298c.737 0 1.334-.598 1.334-1.335V62.15h3.223c.737 0 1.334-.597 1.334-1.334v-6.606c.073-.378.111-.762.111-1.144a6.103 6.103 0 0 0-6.096-6.095H63.995V30.722a4.973 4.973 0 0 0 4.63-1.595 4.973 4.973 0 0 0 7.907-.598 4.987 4.987 0 0 0 4.18 2.277c2.753 0 4.992-2.248 4.992-5.01v-1.757l-.003-.075c0-.025.003-.05.003-.077zm-45.696 4.25c-1.272 0-2.308-1.05-2.308-2.341v-.422h4.616v.422c0 1.29-1.035 2.341-2.308 2.341zm10.652-2.341a2.335 2.335 0 0 1-2.324 2.341 2.335 2.335 0 0 1-2.324-2.341v-.422h4.648v.422zm5.878 2.341a2.335 2.335 0 0 1-2.324-2.341v-.422h4.648v.422a2.335 2.335 0 0 1-2.324 2.341zm-39.129-.96a3.402 3.402 0 0 1 2.3.414c.792.46 1.357 1.2 1.592 2.085l5.914 22.288h-3.228L17.41 27.177zm5.558 43.6h-2.63v-8.349h2.63v8.349zm38.358-5.324H60.15v-3.304h1.177v3.304zm14.488 4.434h-2.63V62.43h2.63v7.458zm4.557-10.406H12.08v-4.054H80.37v4.054zm-3.317-9.843a3.432 3.432 0 0 1 3.414 3.12h-50.28l-.828-3.12h28.948a1.33 1.33 0 0 0 1.014 0h17.732zM60.149 46.97V29.25c.212-.222.403-.463.57-.721.178.273.382.527.608.76v17.68h-1.178zM64.9 28.137a2.335 2.335 0 0 1-2.324-2.341v-.422h4.648v.422a2.335 2.335 0 0 1-2.324 2.341zm-4.514-5.616l-7.267-.028c.28-10.847 3.931-18.297 7.225-18.314h.032c1.663.016 3.473 2.013 4.846 5.35 1.443 3.509 2.293 8.084 2.425 13.002l-7.261-.01zm14.288 3.275a2.335 2.335 0 0 1-2.323 2.341 2.335 2.335 0 0 1-2.324-2.341v-.422h4.647v.422zm-4.36-3.261c-.135-5.266-1.054-10.203-2.625-14.022-.612-1.488-1.306-2.755-2.063-3.786 4.04.846 7.756 2.656 10.782 5.299 3.905 3.41 6.206 7.816 6.575 12.526l-12.668-.017zm12.722 3.26a2.335 2.335 0 0 1-2.324 2.342 2.335 2.335 0 0 1-2.324-2.341v-.422h4.648v.422zM13.87 65.689a1.335 1.335 0 0 1 0 2.669H1.334a1.334 1.334 0 0 1 0-2.669H13.87zm75.415 0a1.334 1.334 0 1 1 0 2.669h-8.573a1.334 1.334 0 1 1 0-2.669h8.573z"/>
    </g>
</svg>
