<svg xmlns="http://www.w3.org/2000/svg" width="76" height="80" viewBox="0 0 76 80">
    <defs>
        <linearGradient id="a" x1="0%" y1="50%" y2="50%">
            <stop offset="0%" stop-color="#86C98B"/>
            <stop offset="49.057%" stop-color="#86D3A4"/>
            <stop offset="100%" stop-color="#7DCAC5"/>
        </linearGradient>
    </defs>
    <g fill="none" fill-rule="evenodd">
        <path fill="#FFF" d="M-814-1071H552v8603H-814z"/>
        <path fill="url(#a)" fill-rule="nonzero" d="M74.878 36.656L38.631.409a1.397 1.397 0 0 0-1.975 0L25.9 11.165a1.397 1.397 0 1 0 1.976 1.975l9.768-9.768 24.233 24.233v49.601H13.41v-49.6l11.253-11.254a1.397 1.397 0 1 0-1.975-1.975L.41 36.656a1.397 1.397 0 1 0 1.975 1.975l8.233-8.232v48.204c0 .771.625 1.397 1.396 1.397h51.26c.772 0 1.398-.626 1.398-1.397V30.399l8.232 8.232a1.393 1.393 0 0 0 1.975 0 1.397 1.397 0 0 0 0-1.975zM41.085 26.535a5.122 5.122 0 0 0-3.441-1.332 5.09 5.09 0 0 0-3.442 1.332 5.11 5.11 0 0 0 0 7.578 5.14 5.14 0 0 0 1.003.713 5.09 5.09 0 0 0 2.439.62 5.09 5.09 0 0 0 3.441-1.333 5.109 5.109 0 0 0 1.68-3.79c0-1.5-.648-2.85-1.68-3.788zm-1.961 5.585a2.363 2.363 0 0 1-.789.427 2.32 2.32 0 0 1-2.17-.427 2.324 2.324 0 0 1 0-3.592 2.316 2.316 0 0 1 1.479-.532c.562 0 1.077.2 1.48.532a2.324 2.324 0 0 1 0 3.592zm11.252-6.178a15.327 15.327 0 0 1 2.673 8.674c0 5.526-2.906 10.549-7.641 13.307v4.175c0 .29-.09.573-.258.809l-2.54 3.579 2.54 3.58c.323.454.344 1.057.055 1.533l-1.533 2.522 1.533 2.521c.334.55.25 1.258-.206 1.713l-5.196 5.196c-.262.262-.618.41-.988.41h-3.58c-.264 0-.524-.076-.747-.218l-3.96-2.51a1.396 1.396 0 0 1-.648-1.18v-22.13a15.341 15.341 0 0 1-7.64-13.307c0-8.495 6.91-15.405 15.404-15.405 3.467 0 6.742 1.125 9.469 3.253a1.397 1.397 0 0 1-1.718 2.203 12.484 12.484 0 0 0-7.75-2.663c-6.954 0-12.612 5.658-12.612 12.612 0 4.762 2.636 9.067 6.88 11.235.467.24.76.72.76 1.244v22.19l1.632 1.035v-5.741a1.397 1.397 0 1 1 2.794 0v6.589h1.138l4.011-4.012-1.404-2.31a1.397 1.397 0 0 1 0-1.45l1.497-2.463-2.583-3.638a1.397 1.397 0 0 1 0-1.617l2.856-4.024v-4.558c0-.525.294-1.005.762-1.244a12.566 12.566 0 0 0 6.879-11.236 12.54 12.54 0 0 0-2.187-7.1 1.397 1.397 0 1 1 2.308-1.574zM35.7 46.422c.772 0 1.397.625 1.397 1.396v12.105a1.397 1.397 0 1 1-2.794 0V47.818c0-.771.626-1.397 1.397-1.397z"/>
    </g>
</svg>
