<?xml version="1.0" encoding="UTF-8"?>
<svg xmlns="http://www.w3.org/2000/svg" width="15" height="15" viewBox="0 0 15 15">
  <circle cx="147.5" cy="24.5" r="4.5" fill="#F2F2F2" fill-rule="evenodd" stroke="#90C73F" stroke-width="5" transform="translate(-140 -17)"/>
</svg>
