<?xml version="1.0" encoding="UTF-8"?>
<svg width="35px" height="40px" viewBox="0 0 35 40" version="1.1" xmlns="http://www.w3.org/2000/svg" xmlns:xlink="http://www.w3.org/1999/xlink">
    <!-- Generator: Sketch 49.3 (51167) - http://www.bohemiancoding.com/sketch -->
    <title>Group</title>
    <desc>Created with Sketch.</desc>
    <defs>
        <linearGradient x1="50%" y1="0%" x2="50%" y2="100%" id="linearGradient-1">
            <stop stop-color="#000000" stop-opacity="0" offset="0%"></stop>
            <stop stop-color="#000000" stop-opacity="0.249603714" offset="100%"></stop>
        </linearGradient>
    </defs>
    <g id="Symbols" stroke="none" stroke-width="1" fill="none" fill-rule="evenodd">
        <g id="Group-27-Copy" transform="translate(-193.000000, -34.000000)">
            <g id="Group-9-Copy">
                <g transform="translate(0.000000, 34.000000)">
                    <g id="Group-30" transform="translate(156.000000, 0.000000)">
                        <g id="Group-25-Copy-3" transform="translate(37.000000, 0.000000)">
                            <g id="Group">
                                <rect id="Rectangle-9-Copy-4" fill="#FFFFFF" x="0" y="0" width="35" height="40" rx="2"></rect>
                                <rect id="Rectangle-36-Copy" fill="#EEEEEE" x="0" y="20" width="35" height="1"></rect>
                                <rect id="Rectangle-43-Copy-5" fill="url(#linearGradient-1)" x="0" y="5" width="35" height="16"></rect>
                            </g>
                        </g>
                    </g>
                </g>
            </g>
        </g>
    </g>
</svg>