<svg xmlns="http://www.w3.org/2000/svg" width="16" height="19" viewBox="0 0 16 19">
  <path fill="#FFF" d="M9.30426374,16.4914286 C10.2201319,16.5051429 11.2634725,16.4305934 12.0961758,17.6131868 C11.0985495,17.8575824 10.242989,18.1643956 9.36334066,18.2605714 C8.30593407,18.3773187 7.22391209,18.3964835 6.16246154,18.3087473 C5.1476044,18.2255824 4.14523077,17.9607912 3.1476044,17.7287033 C3.10136264,17.719033 3.0618022,17.1089231 3.18945055,17.0185495 C4.20483516,16.2964396 5.21705495,15.2488791 6.20606593,16.122022 C6.30962637,16.2134505 6.5018022,16.0328791 6.91463736,16.133978 C5.10558242,12.1417143 5.72184615,9.86197802 8.22153846,6.4370989 C7.7483956,7.94584615 6.87349451,9.75542857 6.87349451,11.306022 C6.90918681,11.7578901 9.19947253,10.0334066 10.2765714,9.33134066 C9.62795604,10.4481758 8.77345055,11.2145934 7.68298901,11.661011 C7.0356044,11.9268571 6.86681319,12.2976703 7.00518681,12.9185055 C7.17046154,13.655033 7.27789011,14.4107253 7.50013187,15.1279121 C7.7650989,15.979956 8.28624176,16.4738462 9.30426374,16.4914286 Z M11.0046593,7.83454945 C11.7290549,7.4123956 13.4356044,7.67630769 13.4356044,7.67630769 C13.4356044,7.67630769 12.8265495,9.29248352 12.1033846,9.71534066 C11.581011,10.0186374 11.0034286,10.0648791 10.6088791,9.87305495 C10.4546813,9.79832967 11.467956,9.02065934 11.3825055,8.87437363 C11.3114725,8.75375824 10.1346813,9.2843956 10.1322198,9.14232967 C10.1214945,8.68167033 10.4499341,8.15859341 11.0046593,7.83454945 Z M10.242989,6.91745055 C10.1262418,6.86083516 10.8858022,6.27903297 10.8218022,6.16949451 C10.7688791,6.07841758 9.888,6.47630769 9.88553846,6.36958242 C9.8770989,6.02443956 10.123956,5.63340659 10.5390769,5.38936264 C11.0816703,5.07375824 12.3597363,5.27173626 12.3597363,5.27173626 C12.3597363,5.27173626 11.9036484,6.48246154 11.3621099,6.79859341 C10.9710769,7.02575824 10.5385495,7.0603956 10.242989,6.91745055 Z M12.8001758,5.56501099 C13.2105495,5.32589011 14.1758242,5.47621978 14.1758242,5.47621978 C14.1758242,5.47621978 13.831033,6.39103297 13.4218901,6.62962637 C13.1263297,6.80210989 12.7996484,6.82795604 12.5758242,6.71964835 C12.4873846,6.67762637 13.0618022,6.23718681 13.0138022,6.15472527 C12.9733626,6.08615385 12.308044,6.38628571 12.3068132,6.30540659 C12.3008352,6.04483516 12.4861538,5.7490989 12.8001758,5.56501099 Z M13.7232527,8.38382418 C13.8037802,8.23613187 14.0049231,8.12817582 14.2417582,8.12571429 C14.549978,8.12254945 15.0458022,8.52026374 15.0458022,8.52026374 C15.0458022,8.52026374 14.5573626,8.92483516 14.2491429,8.92817582 C14.0265495,8.92923077 13.832967,8.83868132 13.7425934,8.70540659 C13.7065495,8.65301099 14.1721319,8.59024176 14.1721319,8.52764835 C14.1709011,8.47578022 13.6977582,8.43076923 13.7232527,8.38382418 Z M14.9241319,6.33336264 C15.2516923,6.27182418 15.8537143,6.60167033 15.8537143,6.60167033 C15.8537143,6.60167033 15.4090549,7.12386813 15.0823736,7.18505495 C14.8471209,7.22918681 14.6238242,7.16782418 14.5023297,7.04386813 C14.4546813,6.99446154 14.9383736,6.83920879 14.9264176,6.77397802 C14.9156923,6.71859341 14.404044,6.75973626 14.4223297,6.70558242 C14.4801758,6.53169231 14.6727033,6.38065934 14.9241319,6.33336264 Z M8.58567033,8.43674725 C8.49828571,8.39437363 9.07217582,7.95446154 9.02382418,7.87164835 C8.98303297,7.80325275 8.31789011,8.10320879 8.31665934,8.02268132 C8.31032967,7.76210989 8.49564835,7.46654945 8.80984615,7.28210989 C9.22021978,7.04316484 10.1851429,7.19296703 10.1851429,7.19296703 C10.1851429,7.19296703 9.84105495,8.10795604 9.43191209,8.34707692 C9.136,8.51956044 8.80879121,8.54593407 8.58567033,8.43674725 Z M10.1791648,4.50584615 C10.0926593,4.25951648 10.1779341,3.9207033 10.420044,3.64764835 C10.7352967,3.29353846 11.7003956,3.13881319 11.7003956,3.13881319 C11.7003956,3.13881319 11.6559121,4.11481319 11.3406593,4.46769231 C11.1131429,4.72404396 10.8098462,4.84975824 10.5631648,4.81459341 C10.4668132,4.80228571 10.8771868,4.20589011 10.8050989,4.14312088 C10.7447912,4.08949451 10.2057143,4.58162637 10.1791648,4.50584615 Z M13.3178022,4.14294505 C13.2574945,4.08949451 12.7171868,4.58162637 12.6908132,4.50637363 C12.6055385,4.25986813 12.6908132,3.92052747 12.9315165,3.648 C13.2467692,3.29389011 14.2118681,3.13863736 14.2118681,3.13863736 C14.2118681,3.13863736 14.1673846,4.11463736 13.8533626,4.46751648 C13.6258462,4.72386813 13.3218462,4.84958242 13.0758681,4.81441758 C12.9795165,4.80210989 13.3886593,4.20571429 13.3178022,4.14294505 Z M10.2273407,2.46030769 C10.1672088,2.40668132 9.62813187,2.89828571 9.60158242,2.82320879 C9.51507692,2.57687912 9.59982418,2.23753846 9.84228571,1.96553846 C10.1575385,1.61142857 11.1226374,1.45617582 11.1226374,1.45617582 C11.1226374,1.45617582 11.0781538,2.4327033 10.7629011,2.78610989 C10.5353846,3.04123077 10.2313846,3.16764835 9.98487912,3.13301099 C9.88905495,3.11947253 10.2994286,2.52378022 10.2273407,2.46030769 Z M8.17037363,2.73687912 C7.85810989,2.58232967 7.62074725,2.17758242 7.59753846,1.6901978 C7.56712088,1.05424176 8.34742857,0 8.34742857,0 C8.34742857,0 9.22021978,0.977758242 9.24782418,1.61142857 C9.27068132,2.06962637 9.09749451,2.47578022 8.83024176,2.67287912 C8.7243956,2.752 8.55912088,1.79498901 8.43041758,1.80184615 C8.3243956,1.80712088 8.26795604,2.78487912 8.17037363,2.73687912 Z M7.5352967,4.76624176 C7.28263736,4.70382418 7.04527473,4.44694505 6.95032967,4.0952967 C6.82584615,3.6378022 7.22320879,2.74479121 7.22320879,2.74479121 C7.22320879,2.74479121 8.01617582,3.31674725 8.14013187,3.77371429 C8.22769231,4.10408791 8.16896703,4.42567033 8.00386813,4.61432967 C7.9418022,4.68747253 7.66593407,4.01828571 7.57468132,4.0436044 C7.49767033,4.0647033 7.61476923,4.78558242 7.5352967,4.76624176 Z M3.27032967,5.39182418 C2.82162637,5.23903297 2.30241758,4.41037363 2.30241758,4.41037363 C2.30241758,4.41037363 3.21916484,4.07138462 3.6683956,4.22540659 C3.99138462,4.3352967 4.22558242,4.56562637 4.28835165,4.80668132 C4.3149011,4.90021978 3.60632967,4.75428571 3.57591209,4.84483516 C3.55006593,4.92043956 4.2130989,5.22654945 4.15384615,5.28105495 C3.95991209,5.45582418 3.61476923,5.50945055 3.27032967,5.39182418 Z M1.01538462,4.48632967 C0.565626374,4.33336264 0.0478241758,3.50487912 0.0478241758,3.50487912 C0.0478241758,3.50487912 0.964747253,3.16659341 1.41397802,3.32008791 C1.73608791,3.43085714 1.96958242,3.66065934 2.03428571,3.90101099 C2.0596044,3.99525275 1.35103297,3.84808791 1.32096703,3.93863736 C1.29564835,4.01494505 1.95727473,4.32123077 1.8989011,4.37538462 C1.70461538,4.55032967 1.35982418,4.60342857 1.01538462,4.48632967 Z M3.24501099,9.01169231 C3.12017582,9.24096703 2.81213187,9.40448352 2.4472967,9.40835165 C1.97292308,9.41186813 1.2101978,8.80123077 1.2101978,8.80123077 C1.2101978,8.80123077 1.96448352,8.17863736 2.43885714,8.17564835 C2.78065934,8.17318681 3.07745055,8.31384615 3.21740659,8.51956044 C3.27296703,8.59832967 2.55454945,8.69432967 2.55701099,8.78997802 C2.55701099,8.87050549 3.28386813,8.94030769 3.24501099,9.01169231 Z M2.22347253,6.61415385 C2.09846154,6.84342857 1.78918681,7.008 1.42575824,7.01063736 C0.951208791,7.01520879 0.188307692,6.4043956 0.188307692,6.4043956 C0.188307692,6.4043956 0.942593407,5.78215385 1.41696703,5.77881319 C1.75894505,5.77635165 2.05468132,5.91630769 2.19463736,6.12325275 C2.25002198,6.20202198 1.53283516,6.29784615 1.53406593,6.39367033 C1.53512088,6.47331868 2.26232967,6.54417582 2.22347253,6.61415385 Z M4.00492308,3.59032967 C3.7447033,3.61512088 3.43665934,3.44861538 3.23393407,3.14672527 C2.96650549,2.75498901 3.05195604,1.78197802 3.05195604,1.78197802 C3.05195604,1.78197802 3.98681319,2.06312088 4.25301099,2.45538462 C4.44413187,2.73881319 4.49353846,3.06303297 4.39841758,3.29406593 C4.36342857,3.38461538 3.88571429,2.83973626 3.80747253,2.89476923 C3.74118681,2.94030769 4.08545055,3.58347253 4.00492308,3.59032967 Z M6.1716044,3.59032967 C5.91173626,3.61512088 5.60369231,3.44861538 5.40061538,3.14672527 C5.13353846,2.75498901 5.21898901,1.78197802 5.21898901,1.78197802 C5.21898901,1.78197802 6.15384615,2.06312088 6.42004396,2.45538462 C6.61098901,2.73881319 6.65881319,3.06303297 6.56527473,3.29406593 C6.53010989,3.38461538 6.05274725,2.83973626 5.97450549,2.89476923 C5.90804396,2.94030769 6.25248352,3.58347253 6.1716044,3.59032967 Z M8.26725275,4.88193407 C8.38259341,4.26514286 9.36738462,3.42769231 9.36738462,3.42769231 C9.36738462,3.42769231 9.98769231,4.56404396 9.87164835,5.1796044 C9.78813187,5.62479121 9.53178022,5.97503297 9.23024176,6.10496703 C9.11173626,6.15665934 9.16589011,5.20087912 9.04193407,5.17749451 C8.93854945,5.15850549 8.66479121,6.0850989 8.58268132,6.01740659 C8.31665934,5.79868132 8.17916484,5.35542857 8.26725275,4.88193407 Z M5.65292308,5.82751648 C5.28896703,5.31657143 5.3709011,4.02654945 5.3709011,4.02654945 C5.3709011,4.02654945 6.61731868,4.36993407 6.98074725,4.87982418 C7.24272527,5.24887912 7.31797802,5.67630769 7.20210989,5.9832967 C7.1563956,6.10479121 6.5061978,5.40184615 6.40421978,5.47516484 C6.31718681,5.536 6.79402198,6.37784615 6.68940659,6.38945055 C6.34725275,6.42953846 5.93336264,6.21942857 5.65292308,5.82751648 Z M4.42004396,8.34707692 C3.61582418,8.25617582 2.44624176,7.06549451 2.44624176,7.06549451 C2.44624176,7.06549451 3.85195604,6.16316484 4.65459341,6.25441758 C5.23586813,6.32052747 5.71147253,6.61854945 5.90610989,6.99446154 C5.98312088,7.14232967 4.7469011,7.15885714 4.72914286,7.32167033 C4.71454945,7.45705495 5.93389011,7.72571429 5.85318681,7.83683516 C5.59701099,8.20026374 5.03736264,8.416 4.42004396,8.34707692 Z M5.90751648,9.30338462 C5.95920879,9.40448352 5.11859341,9.41608791 5.10716484,9.52615385 C5.09749451,9.61758242 5.92545055,9.80096703 5.8712967,9.87621978 C5.6967033,10.1241319 5.31674725,10.2705934 4.89775824,10.2229451 C4.34989011,10.1617582 3.55586813,9.35296703 3.55586813,9.35296703 C3.55586813,9.35296703 4.5112967,8.73828571 5.05793407,8.80052747 C5.45265934,8.84589011 5.7752967,9.04738462 5.90751648,9.30338462 Z"/>
</svg>
