<svg xmlns="http://www.w3.org/2000/svg" width="99" height="80" viewBox="0 0 99 80">
    <defs>
        <linearGradient id="a" x1="0%" y1="50%" y2="50%">
            <stop offset="0%" stop-color="#86C98B"/>
            <stop offset="49.057%" stop-color="#86D3A4"/>
            <stop offset="100%" stop-color="#7DCAC5"/>
        </linearGradient>
    </defs>
    <g fill="none" fill-rule="evenodd">
        <path fill="#FFF" d="M-1152-808H214v8603h-1366z"/>
        <path fill="url(#a)" fill-rule="nonzero" d="M97.5 80H49.799a1.5 1.5 0 0 1-1.499-1.501v-7.414h-8.16a1.5 1.5 0 0 1-1.5-1.502V62.12l-8.153.009A1.504 1.504 0 0 1 29 60.868l-.006-.242v-7.413H20.82a1.5 1.5 0 0 1-1.5-1.501v-7.439l-8.159.01a1.5 1.5 0 0 1-.003-3.003l9.66-.011a1.503 1.503 0 0 1 1.5 1.501v7.44h8.161a1.5 1.5 0 0 1 1.5 1.501v7.413l8.16-.01a1.503 1.503 0 0 1 1.5 1.501v7.467h8.16a1.5 1.5 0 0 1 1.5 1.501v7.414h6.73V28.194H1.498A1.5 1.5 0 0 1 0 26.693a1.5 1.5 0 0 1 1.499-1.502h68.48v-3.17h-3.404c-2.847 0-5.162-2.32-5.162-5.171V5.172C61.413 2.32 63.729 0 66.575 0h23.878c2.847 0 5.163 2.32 5.163 5.172V16.85c0 2.851-2.316 5.172-5.163 5.172H87.05v3.17H97.5a1.5 1.5 0 0 1 1.499 1.5V78.5A1.5 1.5 0 0 1 97.5 80zm-1.498-3.003V28.194H61.026v48.804h4.414V41.29a1.5 1.5 0 0 1 1.499-1.502h23.15a1.5 1.5 0 0 1 1.499 1.502v35.706h4.414zm-15.99 0h8.578V42.791h-8.577v34.206zm-11.574 0h8.577V42.791h-8.577v34.206zm4.538-51.806h11.076v-3.17H72.976v3.17zm17.477-6.172a2.17 2.17 0 0 0 2.165-2.17V5.173a2.17 2.17 0 0 0-2.165-2.17H66.575a2.169 2.169 0 0 0-2.165 2.17V16.85a2.17 2.17 0 0 0 2.165 2.169h23.878zm-12.54-2.688a1.512 1.512 0 0 1-.824-.763c-.009-.017-.014-.032-.021-.047l-1.954-4.508-1.825 4.481a1.499 1.499 0 1 1-2.776-1.133l3.17-7.784a1.498 1.498 0 0 1 2.762-.03l1.956 4.511 1.825-4.48c.228-.56.768-.928 1.37-.935a1.49 1.49 0 0 1 1.393.904l3.373 7.784a1.498 1.498 0 1 1-2.75 1.195l-1.955-4.512-1.824 4.478a1.497 1.497 0 0 1-1.92.839zM11.16 44.282a1.5 1.5 0 0 1-1.5-1.501v-7.413H1.5A1.5 1.5 0 0 1 0 33.866a1.5 1.5 0 0 1 1.499-1.501h9.66a1.5 1.5 0 0 1 1.499 1.501v8.915a1.5 1.5 0 0 1-1.5 1.501z"/>
    </g>
</svg>
