<svg xmlns="http://www.w3.org/2000/svg" width="80" height="80" viewBox="0 0 80 80">
    <defs>
        <linearGradient id="a" x1="0%" y1="50%" y2="50%">
            <stop offset="0%" stop-color="#86C98B"/>
            <stop offset="49.057%" stop-color="#86D3A4"/>
            <stop offset="100%" stop-color="#7DCAC5"/>
        </linearGradient>
    </defs>
    <g fill="none" fill-rule="evenodd">
        <path fill="#FFF" d="M-132-1071h1366v8603H-132z"/>
        <path fill="url(#a)" fill-rule="nonzero" d="M80 72.258H57.961a9.02 9.02 0 0 1-2.62 5.161h19.498V80H5.16v-2.58h3.871V52.902h2.58V30.458C4.947 28.733 0 22.683 0 15.484 0 6.946 6.946 0 15.484 0s15.484 6.946 15.484 15.484c0 7.199-4.946 13.249-11.613 14.974v22.445h2.58V77.42h20.789a9.004 9.004 0 0 1-2.62-5.16H24.515V59.856a6.431 6.431 0 0 1 5.391-6.364l10.764-1.795L53.659 38.71H80v33.548zM2.58 15.484c0 7.115 5.789 12.903 12.904 12.903S28.387 22.6 28.387 15.484 22.6 2.58 15.484 2.58 2.58 8.369 2.58 15.484zm14.194 15.418c-.427.036-.854.066-1.29.066-.436 0-.863-.03-1.29-.066v22.001h2.58V30.902zm2.58 46.517V60.645h-7.741V77.42h7.742zm0-19.354v-2.581h-7.741v2.58h7.742zm20.75 11.612a8.952 8.952 0 0 1 .78-2.58H27.097v2.58h13.006zm8.928 7.742a6.459 6.459 0 0 0 6.452-6.451 6.459 6.459 0 0 0-6.452-6.452 6.459 6.459 0 0 0-6.451 6.452 6.459 6.459 0 0 0 6.451 6.451zm6.452-12.903h7.742v2.58H57.18c.383.803.649 1.67.78 2.581H77.42v-2.58H65.806v-2.58H77.42V41.29H54.728L41.91 54.108l-11.58 1.93a3.858 3.858 0 0 0-3.234 3.819v4.66H42.58v.142a8.998 8.998 0 0 1 6.451-2.724 8.998 8.998 0 0 1 6.452 2.724v-.143zm.756-20.645L45.917 54.194H74.84V43.87H56.24zm16.018 7.742h-20.11l5.16-5.161h14.95v5.16zM49.032 67.097a3.876 3.876 0 0 0-3.87 3.87 3.876 3.876 0 0 0 3.87 3.872 3.876 3.876 0 0 0 3.871-3.871 3.876 3.876 0 0 0-3.87-3.871zM20.956 8.63l3.236-3.237 1.415 1.415-3.243 3.242c.544.818.862 1.8.862 2.853a5.166 5.166 0 0 1-5.161 5.162H14.35l-1.447 1.446v5.005h-2.58v-2.424l-4.515 4.515-1.415-1.415 5.93-5.929V7.742h7.742c1.07 0 2.066.327 2.891.888zm-4.026 6.854h1.135a2.583 2.583 0 0 0 2.398-3.533l-3.533 3.533zm-2.828 0l4.96-4.96c-.307-.13-.644-.201-.997-.201h-5.162v5.16h1.199zm34.93 56.774c-.71 0-1.29-.578-1.29-1.29 0-.713.58-1.29 1.29-1.29.711 0 1.29.577 1.29 1.29 0 .712-.579 1.29-1.29 1.29zm16.774-15.484h9.033v2.58h-9.033v-2.58zM0 77.42h2.58V80H0v-2.58zm77.42 0H80V80h-2.58v-2.58z"/>
    </g>
</svg>
