<svg xmlns="http://www.w3.org/2000/svg" width="86" height="80" viewBox="0 0 86 80">
    <defs>
        <linearGradient id="a" x1="0%" y1="50%" y2="50%">
            <stop offset="0%" stop-color="#86C98B"/>
            <stop offset="49.057%" stop-color="#86D3A4"/>
            <stop offset="100%" stop-color="#7DCAC5"/>
        </linearGradient>
    </defs>
    <g fill="none" fill-rule="evenodd">
        <path fill="#FFF" d="M-469-808H897v8603H-469z"/>
        <path fill="url(#a)" fill-rule="nonzero" d="M14.615 74.122a1.425 1.425 0 1 1 0-2.85 1.425 1.425 0 0 1 0 2.85zm47.066-2.85a1.425 1.425 0 1 1-.014 0h.014zM81.608 5.704h-5.702c-.787 0-1.425.638-1.425 1.425s-.638 1.425-1.425 1.425h-4.019l-2.85 14.254H0l7.773 34.21h52.454v8.552H8.913a1.425 1.425 0 0 0 0 2.85h.037a7.053 7.053 0 0 0-1.462 4.277 7.127 7.127 0 0 0 14.253 0 7.053 7.053 0 0 0-1.462-4.276h35.709a7.053 7.053 0 0 0-1.463 4.276 7.127 7.127 0 1 0 8.553-6.984v-9.99l5.679-31.231 2.615-13.087h1.684c.787 0 1.425.638 1.425 1.426 0 .787.638 1.425 1.425 1.425h5.702a4.276 4.276 0 1 0 0-8.552zm-66.993 71.27a4.276 4.276 0 1 1 0-8.553 4.276 4.276 0 0 1 0 8.552zm51.314-4.277a4.276 4.276 0 1 1-8.553 0 4.276 4.276 0 0 1 8.553 0zm-.802-44.187h-4.9v2.85h4.382l-4.147 22.807H10.053L4.868 31.36h1.194V28.51H4.22l-.647-2.85h62.071l-.516 2.85zm16.48-17.105h-4.275v-2.85h4.276a1.425 1.425 0 0 1 0 2.85zM14.616 2.263L4.047 12.83l7.717 7.717L22.332 9.98l-7.717-7.717zM8.078 12.83l6.537-6.537L18.3 9.98l-6.537 6.537-3.686-3.686zm16.514-1.426v8.553h22.806v-8.553H24.592zm19.956 5.702H27.443v-2.851h17.105v2.85zM50.249.002v19.956h11.403V.002H50.25zm8.553 17.105H53.1V2.853h5.702v14.254zM24.592 5.704h8.553v2.85h-8.553v-2.85zM4.665 17.107a1.433 1.433 0 1 1-.014 0h.014zM46.002 5.704a1.433 1.433 0 1 1-.015 0h.015zM14.615 48.465H55.95v2.851H14.615v-2.85zM8.913 28.51h5.702v2.85H8.913v-2.85zm8.552 0h5.702v2.85h-5.702v-2.85zm8.553 0h5.701v2.85h-5.701v-2.85zm8.552 0h5.702v2.85H34.57v-2.85zm8.552 0h5.702v2.85h-5.702v-2.85zm8.553 0h5.701v2.85h-5.701v-2.85z"/>
    </g>
</svg>
